%YAML 1.1
%TAG !u! tag:unity3d.com,2011:
--- !u!1045 &1
EditorBuildSettings:
  m_ObjectHideFlags: 0
  serializedVersion: 2
  m_Scenes:
  - enabled: 1
    path: Assets/Scenes/_preload.unity
    guid: 63f7e86b7c9829c43a6cd44d548f6090
  - enabled: 1
    path: Assets/Scenes/playGround.unity
    guid: 25860c44451bc7948add1450e40763b1
  - enabled: 1
    path: Assets/Scenes/GameScene.unity
    guid: 802e5a60058c0fe4a87153b77b1db810
  m_configObjects: {}
